Members,Description,Type,Probability
1,Single person,PS1,0.335310
2,Couple,C2,0.197685
2,Single parents,M2,0.077122
3,Couple with child,Cf3,0.169571
3,Single parent,M3,0.030332
4,Couple with 2 children,Cf4,0.147104
4,Single parent ,M4,0.005002
5,Couple with ch.,Cf5,0.037875
