TABELLA 2 - Probability of household types,,,
(used in step 2a, prob_fam(tipo_fam)),,,
Members,Description,Type,Probability
1,Single person,PS1,0.335310
2,Couple,C2,0.197685
2,Single parents,M2,0.077122
3,Couple with child,Cf3,0.169571
3,Single parent,M3,0.030332
4,Couple with 2 children,Cf4,0.147104
4,Single parent ,M4,0.003502
5,Couple with ch.,Cf5,0.021642857
5,Single parent ,M5,0.001502
6,Couple with ch.,Cf6,0.010821429
7,Couple with ch.,Cf7,0.0054107143
TOT,,,1.000000
