tile_id,x,y,type
82,680515.6055421894,4848781.9013747815,2
111,680002.8389598763,4850781.7611962035,2
98,681843.3425058492,4849714.066136601,3
82,680294.775094348,4849333.176988602,2
82,680188.4805283303,4849545.113570832,0
97,680805.5615049014,4849940.278309667,3
100,683193.4064845255,4850412.708927207,2
65,678637.9921480374,4848472.877213175,2
68,681803.3117996523,4848422.626728433,0
109,677808.7697182121,4850998.146946061,2
82,680974.4361974122,4849177.727640933,1
69,683011.1507014823,4847972.3213764625,3
98,681381.5292467702,4850205.107138839,2
97,680904.464077879,4850228.575654818,2
66,679807.8522568647,4847835.6735788705,2
97,680695.097260802,4849947.909946135,1
97,680270.4322369642,4850555.231598493,2
96,679469.5615481721,4850121.795629626,0
97,680213.713036857,4850430.909668093,2
67,680946.0982010089,4847987.40896987,2
96,679497.7008572733,4850069.780073574,2
81,679439.1037290422,4849309.388176214,1
80,678608.161303681,4849093.183697109,3
113,681234.6139992026,4850717.198618882,3
113,681466.5113530199,4851447.661300388,2
127,680996.017126424,4851825.775953099,1
113,682096.2821991622,4851250.3013333855,2
82,680780.3279156904,4849540.850869623,0
98,681236.5428661179,4850095.79608321,0
97,681104.2825985255,4850592.719333719,2
97,680511.216430942,4849817.945426738,2
96,679852.2937178748,4849829.448913072,3
100,683969.7553837571,4850661.03564583,1
81,679970.599990289,4849601.392712347,1
81,679649.7098933886,4848797.387563931,2
83,681299.5411952444,4849175.164208576,1
97,681026.3080830118,4850433.224340859,0
95,678541.3391386537,4849676.123837018,2
99,682332.5438419149,4850080.783859821,1
97,680507.234597043,4850476.626978221,2
80,678982.1298172456,4849222.722132102,2
99,682431.7026316001,4850580.0296839345,2
98,681587.0398174635,4850127.143011729,2
65,678751.7134721474,4848190.756183285,1
115,683314.3007204558,4851403.297637003,2
83,681636.7225126185,4849071.63819507,2
67,680633.2322866317,4847686.417475756,1
69,683033.8546685019,4848418.479436075,1
67,680887.4731358137,4848447.277694765,2
97,680606.4018474132,4849735.1398699675,0
81,679658.0762860363,4849343.9112809235,1
83,681521.3021190298,4849268.33352641,0
98,681363.4309110552,4850416.1742461575,2
97,680670.5466699038,4850080.38232101,2
96,679463.5469292678,4850051.789332352,2
97,680843.4212413183,4850164.326036373,2
97,680543.828281426,4850411.893489181,2
50,678648.3149819679,4847142.987877446,2
80,678440.8079330829,4849235.205984862,0
53,681496.2565282839,4847056.279810191,0
93,676745.6939874917,4849715.803799736,2
82,680956.6422505111,4849666.97232091,2
111,679931.4018734385,4850927.170617326,2
114,682610.8963703891,4851097.6931588445,2
96,679908.3241463384,4849915.861945482,2
83,681637.752781447,4849072.098594703,2
96,680053.1556982126,4850254.725222633,2
82,680819.1486902984,4849039.0307227895,1
83,681753.7812564493,4849670.860705847,0
111,679954.6928855823,4850855.895467931,2
83,682143.3587868168,4849003.206272392,1
96,679157.9796444095,4850639.34625467,2
97,681090.4157239068,4850485.41353001,3
68,682032.486044251,4848526.781707021,1
113,681638.5826977547,4850841.20484144,0
100,683523.1937751723,4850510.8115020245,1
96,679503.3674841032,4849794.842952426,1
80,678579.8025830464,4848757.743737945,2
66,679157.0237973266,4848641.484665288,2
83,681639.190309892,4849027.336795296,2
98,681395.4108614733,4850323.645243529,2
67,680801.9114495404,4848525.781686697,2
95,678964.0908864086,4850197.546585923,2
68,681798.8274000628,4848182.425252925,0
80,678811.4692935934,4849427.649586252,0
99,682386.9508336346,4849804.109193068,0
131,684934.6840947791,4852606.68806165,2
68,681198.2031799266,4848019.753100954,2
113,681523.1886635559,4851438.949367367,0
96,679909.2368067259,4849852.342784364,2
94,677933.206478439,4850165.938189198,0
96,679744.4474155239,4849814.549383645,2
95,679009.1835984212,4850206.204069413,2
80,678478.0195954468,4849488.1097623445,1
115,683232.0663730627,4851417.392105328,1
82,681057.8202371079,4849124.766514509,2
113,681218.0578309902,4851031.213374194,1
82,680184.9929122749,4848899.291343323,0
82,680389.2198364041,4849600.229671897,0
68,682095.3524834282,4848386.1768248305,3
97,680600.0207820265,4850218.560351996,3
113,681444.5673671063,4851406.683035891,2
82,680354.5200133017,4849579.704471794,1
81,680135.2971239712,4849436.269049134,3
65,678538.1552116665,4848334.991531897,2
79,677681.9028665186,4849397.380703316,2
67,680256.1836084697,4847761.178775913,2
67,680733.271498059,4848577.078303516,1
95,678719.331405006,4849944.675142909,0
112,680596.8141625173,4851255.347724869,3
142,680729.155304555,4853043.584921055,2
79,677414.5144509801,4848968.629785494,1
111,679275.83947085,4851394.892075554,1
98,681259.4223006724,4849965.034864061,2
83,681229.1145541628,4849491.034711483,0
95,678918.0140854695,4850191.64522965,3
97,680886.1985358188,4849746.831667995,2
99,682182.1372981099,4849805.006758314,2
83,681814.1358985556,4849182.532092187,2
67,680505.5977795484,4847994.80029582,2
66,679946.5619900828,4847820.181644552,2
96,679704.5097335675,4850456.425747517,2
83,681350.2561344337,4849340.4917794755,0
82,680941.1824197836,4848957.225207991,2
98,681592.6324692225,4849682.738639646,0
97,680846.3371797509,4850626.450591077,2
98,681876.6723855904,4849888.968619211,1
82,680790.4152595057,4848885.265963609,0
113,681825.5595342667,4851144.083434357,0
113,681954.7606156191,4851567.554491157,2
96,679441.736514732,4850265.999873966,0
109,677936.3103897631,4850840.928101191,3
114,682963.765744091,4851162.883883756,2
112,681033.5145561376,4851028.651067264,1
94,678076.7976168251,4850409.450900114,2
96,679577.7972142411,4850390.548344068,0
98,681806.337898624,4850296.124575594,3
67,680229.0112133699,4848355.726678123,2
96,679880.4343310905,4850513.399675811,2
69,682749.8492505386,4848045.5551222265,0
80,679077.5957404935,4848719.012541429,2
111,679451.296423437,4851236.809968948,2
112,680965.6061726416,4850680.796082811,3
113,681234.20885815,4851457.409835202,2
83,681393.0410115804,4849346.522627154,2
68,682015.3835269227,4848289.833278047,1
82,680946.3943910915,4849384.007251094,1
98,681382.6023684768,4849794.969444267,2
97,680259.7125710966,4849767.318347187,2
112,680742.5739149243,4851032.948462087,0
82,680809.8277301497,4849239.007377574,2
97,680971.1736637978,4850094.973253742,3
68,681807.3361714433,4848486.179308257,0
98,681481.2449829865,4850212.912621232,2
97,680714.8519644195,4849676.262147802,0
81,679434.8374826576,4848772.755881637,2
82,680750.0333471633,4849389.536652969,1
82,680606.4997827256,4849451.52099176,2
82,680938.298829789,4849348.345732374,2
130,683958.3144207798,4851798.1413783,2
81,679862.8672922574,4849554.39668481,0
83,681281.9599887573,4849379.856555366,3
54,682251.2195609356,4847155.590738446,1
67,680795.5293312183,4848599.483065204,0
86,684155.2941388275,4849356.843778231,2
81,680081.467522472,4848849.508676167,1
112,681134.6602935493,4851330.580999632,2
81,679450.3178427297,4849474.606557103,2
111,680121.2393573542,4851218.66498676,1
97,681021.9273256642,4849746.577448439,3
98,681917.9825535308,4849717.205291284,1
82,681127.1687111045,4849565.976150324,2
99,682537.1987340713,4849677.087389524,1
127,680506.0784941802,4851735.085891238,3
52,680150.2736653107,4846888.9990154775,0
56,684704.5041209883,4847270.676994252,0
83,681239.8829342322,4849020.726890312,2
96,679569.3041411014,4849689.965345904,3
96,679607.1308166971,4850500.657197296,3
96,679234.5065882722,4850240.2365252115,2
83,682053.3804938544,4849211.436792122,3
111,680101.9605207294,4850895.384319469,3
112,680839.570173554,4850908.766371362,2
97,680553.2634484118,4849893.401285104,1
113,681745.7650719807,4850827.720974563,2
96,679378.4103207432,4849999.706203697,2
80,679035.1680308547,4848998.75225544,1
97,680984.9724208416,4850509.912094379,0
98,681549.9653871191,4849805.267634673,2
97,681147.3249297157,4849674.1397036845,1
111,679434.3458664232,4851440.076174206,3
53,681664.7537232063,4846731.485333331,1
66,679532.7350694258,4847971.310883387,0
66,679866.2184928897,4848248.04737593,2
81,679232.5961729862,4849236.619110496,0
84,682600.2639830473,4849367.002083859,0
68,681598.6587716102,4847863.741110251,2
68,681556.0165235875,4848490.342248806,3
69,682519.343591783,4848639.52187335,1
131,684867.5003324273,4852621.44079807,1
124,678084.687304204,4851834.622224876,2
81,679540.9615887536,4849178.432586357,3
81,679724.2638338074,4849236.231939211,2
66,679372.2970264952,4848293.487090953,0
50,679032.1515886637,4847382.775391708,0
82,680199.0468639862,4849532.275663889,1
65,678823.6208871352,4848475.1095076855,0
83,681151.0900113754,4849570.711249584,2
67,680726.0739422122,4847752.2848687265,0
83,681370.0694572147,4848758.162537606,2
98,681410.1191375266,4849850.884401943,2
98,681553.0367402092,4850111.9834049195,2
96,680088.4130548334,4850173.498238069,1
70,683830.2415640197,4848087.94510659,2
112,681000.1731347924,4850698.154763741,2
79,677854.7993311321,4848712.277851657,2
95,679144.9628414199,4850431.961385108,0
79,678037.7719765275,4849659.765475637,0
67,680674.5284037961,4848020.866888685,3
82,680465.8186239892,4849293.094642081,1
96,679945.8879132201,4850110.968378055,1
100,683664.91562867,4850408.090344149,2
83,681472.0007711846,4849503.346410645,2
113,681737.6740022388,4851510.6665563,3
111,679251.9162281561,4850881.544812763,1
81,679149.8091230727,4849364.546947899,3
97,680703.7347087146,4850572.678062143,0
127,680908.0371695475,4851993.084069804,2
124,677864.0591093976,4852025.113408518,2
67,680378.0659257949,4848198.932030592,0
67,680669.6345843795,4848560.6921541905,0
112,680325.8027114125,4851454.434431659,2
66,679428.4408415492,4848402.594626574,3
66,679839.2236871875,4848085.482527629,2
82,680383.2376697101,4849089.09893074,3
97,680784.7264954844,4850176.803938949,2
83,681555.713833895,4849549.655839645,2
84,682269.8107674955,4848891.855543092,2
82,680207.0048747783,4848863.476933509,0
81,679964.2921658962,4848817.727410284,0
68,681305.0099703707,4848617.120333188,2
128,681564.7938346855,4852410.49134031,2
96,679997.2258101809,4850029.5451730015,1
113,681834.1166755185,4850736.642752864,2
83,682117.9044718032,4849085.638925836,2
84,682586.0561585572,4849449.383874956,3
85,683316.007820149,4848816.267109934,2
36,679348.90225208,4846490.481885675,2
67,680669.373774068,4848018.920755361,1
52,680665.4430049972,4847499.789471602,2
52,680501.4161072705,4846972.791354037,2
66,679674.632080654,4848238.101118421,3
110,678420.1834552226,4851262.478702837,2
82,680787.5456291127,4849619.2084863335,1
111,679495.9929707474,4851221.2084023645,1
97,680777.5166811907,4850165.71097986,2
96,679457.4611475209,4850611.602478437,2
65,678999.0389413027,4848591.455493214,0
97,680999.9740006346,4850301.27303261,0
97,680874.908750279,4850546.988968468,2
83,681517.4494170506,4848980.5551368985,0
100,683927.3221096956,4850343.980332318,2
97,681064.4607568855,4850351.957197868,1
83,681376.1491106654,4849013.068742223,0
65,679032.1844667683,4848325.209768853,3
65,678718.1652992647,4848251.577889301,0
99,683022.7706302293,4849776.338537885,1
96,679263.3067901693,4850064.943730126,0
80,679082.6103528662,4848721.500891029,0
97,680589.8780782444,4849704.4342971705,0
97,680513.2378400031,4850357.1763309445,0
96,679294.7667004043,4850414.360745178,0
112,680191.0666319996,4851534.788031726,0
114,682492.5900365444,4851204.908886217,2
66,679439.5360468215,4848470.982168271,2
125,678558.01773352,4851692.835339025,1
83,682062.4168914189,4849035.360082112,1
113,681386.9718279763,4850926.379262524,2
96,679717.7485290963,4849754.11583884,3
80,678275.2759358789,4849177.95263343,3
51,679531.5914254114,4847503.295655848,0
82,680566.4698047953,4849466.654475319,0
69,682397.034594895,4847801.2720052125,1
110,679093.6534977647,4850833.29097059,1
112,680521.746637802,4851492.683076146,2
83,681661.2434499116,4848716.238700422,2
93,677076.6254498863,4850034.896778602,0
84,682199.2057119776,4848802.062061169,1
80,678874.8506017596,4848918.3502114145,2
97,681146.5197002547,4850601.925532217,0
82,681018.5511844853,4849626.285973366,3
129,682275.406047265,4851760.109537896,0
83,681474.9130314095,4849093.852913136,3
108,677082.5907224743,4850871.735486548,0
96,679471.3575893353,4849789.4279831285,3
97,680855.8341540991,4850627.465499272,3
82,680356.0566308895,4849135.942698783,3
83,681364.9425547044,4849613.061282516,2
83,681832.5762935738,4849533.93323242,2
68,681561.2040647138,4848669.263349764,2
97,680327.1140462375,4850467.029729077,2
94,677879.0209433885,4850452.830694273,0
96,679965.304586787,4850384.797521465,2
113,681273.0786822777,4851516.8906722795,2
110,679012.8555812435,4851411.745649062,3
83,681595.4385552516,4849222.59825976,2
98,682011.1164059702,4850120.1946697,1
82,680838.826924513,4848924.211060469,2
92,676052.8566606006,4849700.558266916,1
80,678731.3939160015,4848952.832548636,0
115,683477.8101979033,4851616.616258542,2
96,679828.7197705266,4850108.969667991,2
79,677672.3116253758,4849410.896933854,1
114,682501.3975425346,4851104.874173806,1
52,680668.5598473847,4847067.793395825,1
54,682305.9371935058,4847255.60877374,1
97,681063.9644728983,4850627.538273842,1
98,681336.3651643875,4849745.094025319,2
98,681193.040331641,4849973.067447891,1
68,681694.7589279508,4848080.856563596,3
85,684064.6721329034,4849644.651434558,3
128,682105.0359640081,4852076.743180061,2
95,678278.0174833009,4850661.571431334,1
98,681318.5187329876,4849876.1797417505,2
84,682360.7476122241,4849145.667195453,3
84,682452.5776698735,4849199.044465335,2
51,680008.6189854806,4847117.494420539,2
99,682395.9431278515,4849981.700392684,2
113,682040.140059396,4850687.111617757,2
71,684507.3026155238,4847781.788694974,1
81,679523.5238556964,4848878.8316168105,2
66,679887.4255954686,4848283.574328898,1
67,680189.3478873794,4848514.110453809,2
96,679913.1932350111,4849736.709839765,3
51,679313.4953354239,4847171.249301593,0
93,676504.5132015586,4850409.656413607,2
96,679996.4772494845,4850577.1579714995,0
83,681202.563549619,4849371.208781934,2
51,679908.6936918104,4846695.681675597,0
70,683551.5982353629,4848476.829536376,3
112,680668.590179143,4851152.014208502,0
39,682585.0700428454,4846338.938750705,3
82,681040.6570791642,4849255.503792946,2
68,681888.1374249092,4848256.530953418,2
97,681067.3887909696,4850638.016249481,2
84,682701.7034079246,4848862.3951450065,2
97,680732.4354852678,4850157.276712461,3
98,681392.7075222024,4850351.084390582,1
128,681198.0258605443,4851876.002895255,2
82,680216.0982728782,4849429.001555168,0
98,681255.9999384562,4850123.785131126,2
70,684000.1058293658,4847890.465312626,0
112,680242.9310469261,4851101.028163531,2
83,681277.7237993492,4848759.921269893,2
84,682535.1948863734,4848999.626890673,2
84,682358.9063814856,4849645.834533759,2
67,680666.1010866483,4847797.0706731705,2
93,677073.4434056332,4849947.055922293,2
113,681423.580688042,4850833.491415089,2
94,677319.3150721346,4850024.052475776,2
69,682853.4323064811,4847765.854810564,3
82,680902.7372668592,4849523.960734383,0
98,682148.0374898772,4850562.966571154,0
51,679295.3597527976,4847418.945368419,0
65,678319.7652501191,4848382.812670997,2
112,681039.658036281,4850724.384212476,2
97,680598.121300135,4849996.646408616,2
96,679911.2152208334,4850166.897786131,2
127,680775.5183811684,4851903.925656727,1
101,684799.6802981176,4850234.795221786,3
98,681900.3147811228,4850461.997500098,2
144,682222.7743688643,4852925.4265202405,1
83,681914.4317973993,4849415.9664178705,1
84,682867.7196758476,4848715.072571237,1
97,680363.4189507181,4850185.887565475,0
94,677566.3844985563,4850199.321122846,0
82,680365.6472605602,4849040.473417243,3
68,681866.130025064,4848433.655464113,2
126,679193.8258673967,4852444.345194086,1
97,680383.9775343352,4850064.744052044,2
81,679610.8718455657,4848793.7894298965,2
114,682901.570337834,4850771.648250314,3
83,681772.7119831791,4849541.557705705,2
83,681625.8373910352,4849369.074151997,2
98,681580.9284297507,4850347.259333876,1
67,680592.6525812411,4848122.273165701,3
97,680944.8608838605,4850095.684532279,2
125,678870.7495892708,4851968.077656857,3
94,677368.8634919433,4850231.945082216,0
82,680873.6481555868,4849221.077363038,3
82,681134.5118444775,4849064.005551065,2
84,682462.4233127073,4849180.123919564,0
84,683005.5301841928,4849367.776673921,2
84,683003.5241875676,4849219.164048268,2
111,679151.4910701284,4850772.1056168685,0
51,680120.1289076445,4847592.680963728,2
113,681369.0279038913,4850706.931948073,2
86,684446.3834766825,4849216.9080574075,1
99,682868.6752656401,4850124.869230413,2
69,682327.6222030668,4848320.146395338,2
111,680066.8445267453,4851266.889167798,1
111,679323.7270133365,4851167.293839785,3
113,681831.8882851441,4850824.0405184785,2
65,678997.5345637177,4847854.826156626,0
97,680290.8719335988,4850667.477172858,3
97,680476.3595365663,4850158.357992741,3
69,683037.8945937534,4847746.20639102,1
81,680116.4805056297,4849643.375027054,3
93,676989.6520022103,4850109.973274419,0
98,681405.193431563,4850339.822216166,3
96,679599.9936804133,4849885.2455279175,2
97,680712.4729967258,4850022.0095877955,2
112,680518.4694088061,4851440.8655582825,0
112,680237.9704663425,4851143.772579472,3
38,681834.0373327463,4846232.065943039,0
80,678349.2291425401,4849291.605621774,1
81,679873.0051226377,4849474.950654526,0
53,681674.5833297453,4847570.013600307,2
96,679727.3992970526,4849785.551557458,1
110,678235.3163961642,4851171.041214472,3
68,681651.3594749543,4848368.65045607,2
99,682333.1684057316,4850076.213014007,0
67,680581.0336486048,4848573.543714823,0
79,677707.2580623649,4848866.237459163,0
113,681707.4810801174,4851445.404248583,2
80,678158.6946379397,4849021.462503444,2
97,681111.7253753415,4850227.1868743915,1
51,679317.330722956,4847427.070148306,3
125,678908.7675314188,4851907.312961252,0
96,679985.6614344497,4850395.714823146,2
82,680373.5801254284,4849453.532076399,3
96,679682.2140844895,4850363.187699579,2
68,681531.5813773919,4847980.748572841,2
111,679979.422392381,4851091.568777682,3
83,682118.812767577,4849283.750156983,0
82,681070.2862085345,4849427.648469521,1
81,679602.1906501747,4849082.545149621,0
81,679349.6166343208,4848975.750204284,2
95,678177.2820114981,4850506.136621533,2
97,681084.6262268694,4849979.620107704,2
96,680116.6451391922,4850454.629657262,3
78,677090.2331679739,4849661.978260196,0
96,679844.9541509151,4850288.371660871,2
81,679296.9754161868,4849169.913394868,1
129,683012.0428483252,4852348.21009727,1
64,678094.3585422293,4847791.015387862,2
110,678486.5002604681,4851185.656675855,3
114,682313.4809247277,4851314.020828444,2
69,682683.6711962651,4848649.94132042,0
126,679531.0520519807,4852347.660220246,2
111,679700.3977258558,4850867.120227113,0
113,681572.8795548992,4850837.898695766,3
94,677157.8767646513,4849706.15851201,2
79,677856.7359333109,4849411.860497717,0
82,680227.4263587932,4849421.241295131,0
99,682973.362309263,4850141.168603162,0
111,679994.9313278191,4851353.955417619,3
97,680799.931647672,4849890.108949012,2
69,682349.2103689152,4848578.799539814,2
100,683808.8535599865,4850661.8443624405,2
111,679783.2537503467,4850777.912783252,2
97,680623.271374469,4850458.123321716,0
100,683381.6092920835,4850567.130575409,3
80,678365.2275472821,4849347.41813139,1
69,682189.8980659,4848557.744887022,2
65,679121.0531615274,4848630.69977081,2
67,680802.2350107239,4847709.975989429,2
97,680284.5978889688,4849956.870221434,3
81,679211.5090590174,4849572.393347707,0
81,679173.8735685818,4849144.546642143,2
37,681063.1480064499,4846125.789298365,1
68,682141.8354523133,4848175.750923946,2
112,680453.9221552865,4851017.540669262,0
82,680753.696198169,4848874.980687503,0
98,681505.2875595058,4850105.241900767,1
66,679191.0983005498,4848003.709371609,1
113,681758.0652226886,4851398.97846641,2
83,681877.5411056589,4849499.698695513,2
101,684553.9659081949,4850020.580363359,2
126,680084.3701742298,4852463.467637837,2
111,679961.403757567,4851492.260008286,2
83,681801.9752674298,4849304.653142034,1
83,681877.1827134375,4848960.667665734,2
81,679845.8957300042,4849281.877873755,1
96,680043.7824446742,4850284.40978575,0
83,681460.2227173963,4849546.262926478,2
81,679407.1500989672,4849198.238913574,2
111,680032.7254780467,4851433.14938843,1
82,680782.9156111219,4849535.480017445,2
128,682142.4344873027,4852432.0387992235,2
96,679741.6285357999,4849781.422964081,2
124,677884.9497670232,4851814.913960649,2
94,677773.630258792,4850101.315194831,2
110,678759.40686001,4850828.084575478,1
80,678678.7748827693,4848802.998625757,2
67,680416.6103221393,4848648.020820474,2
95,678865.2062296728,4850224.179033597,2
111,679594.3940203374,4850858.795778537,2
96,679487.3976325962,4849720.839689979,1
66,679987.7646687973,4848128.859885478,2
69,682632.2829573539,4848040.2218480315,2
68,681641.447844215,4847959.968204956,3
52,680672.7205829832,4847551.385352052,3
96,679956.9870391979,4849803.914318915,2
111,679998.6774751347,4851022.5845936285,2
82,681140.1461649971,4849656.432943269,2
53,681524.7800700977,4846960.034178773,1
81,679287.1002009184,4849443.619335177,3
82,680703.2475934905,4849477.173091619,2
124,677601.0971070747,4852187.73038785,0
67,680966.0971363251,4847923.966392076,0
83,681791.7503230072,4849203.71876446,3
127,680228.4235197479,4851719.555104232,0
100,683373.3169542794,4850212.505897195,1
96,679326.6687889152,4850348.507575799,1
97,680974.6870830241,4849810.033212007,0
97,680594.7893400703,4850068.464133968,1
97,680498.0799589041,4850605.663323913,2
82,680477.0432080621,4848701.148304908,0
112,680809.1840050834,4850726.202182269,2
68,681920.4645752648,4848024.928267316,3
99,682715.1308144813,4850066.573454977,1
97,680645.151093313,4849887.021043522,0
83,681871.5005683267,4848932.980181748,2
81,679595.876040669,4849645.309557188,0
83,681797.4596391586,4848925.48370438,1
66,679505.5391743288,4848386.490295345,3
84,682284.5163642014,4849248.194197643,3
70,683964.4877761591,4848347.745525133,2
97,680465.4006281121,4850059.888844491,1
64,677359.7112238582,4848292.4292945955,2
96,679826.417060202,4850526.904315168,2
69,682496.3391615031,4848254.757006064,1
83,681478.1416406072,4848992.977988882,2
82,681021.8968580818,4848923.007797721,0
114,682161.5289940014,4851262.707962229,1
98,681375.2066189419,4850068.879822318,2
84,682475.1142412459,4849418.451324525,0
98,682027.6619750398,4850270.995216862,0
54,682931.0771391747,4847143.901070783,3
83,681186.7205859286,4849620.77158001,3
128,682006.4155623101,4852069.548900944,2
97,680187.8358504405,4849831.347695262,3
96,679746.3352427307,4849754.027690582,3
100,683208.6779206977,4850330.28594315,0
112,680972.8334745533,4850747.258179556,2
53,681855.8473088628,4847275.571856111,1
52,680834.1364816863,4847653.74010943,0
96,679768.7529836893,4849924.881436883,2
82,680665.0007989429,4848814.680013302,2
114,682802.5174867208,4851246.962202243,2
83,681481.3865714883,4849294.322619717,0
49,678081.3167204736,4847351.095004723,0
67,680325.659775205,4848150.915187366,3
40,683321.9671491263,4846372.920664022,0
82,680327.8311672943,4849391.581242839,1
79,677947.8084224679,4849446.470934861,1
85,683488.099788203,4849163.176635841,2
113,681672.1152247884,4850967.186734415,2
112,680543.5071718501,4851110.755691399,2
81,680091.3998559461,4849468.065779552,0
54,682272.0543547568,4847110.899486607,1
96,679835.55135973,4850413.269784169,3
99,682370.9110968432,4850338.964161789,2
98,681461.8193886556,4850043.801771767,2
112,681015.5493483002,4850850.307586748,2
67,680866.7986680727,4848274.738171825,2
127,680386.074404998,4852083.038351001,0
69,682216.9866403831,4848521.218583808,1
96,679350.5122119165,4850571.5994002195,2
50,678215.6387698239,4847647.714654283,1
68,681570.1866444079,4848556.214262854,3
113,681595.3839521699,4851492.17426365,2
83,681368.8881888369,4849359.452099978,2
113,681260.1190144963,4850680.439013738,3
97,680167.7158925629,4849956.878354042,2
83,681829.7505166475,4849546.582100378,3
112,680580.1892699375,4851309.152277498,2
81,679917.8561188465,4849388.541297996,3
52,680180.6894916862,4847535.646158502,1
85,683679.4860082329,4848708.643777236,2
94,678046.0623370011,4850333.961962021,2
98,681398.208616513,4850147.142815214,0
64,678129.8608186337,4847792.061987297,1
82,680486.1764525848,4848803.320864289,3
81,679998.0852323379,4848974.466268536,2
79,677520.9840150494,4849233.968374642,0
68,681232.0828457199,4848021.435581257,1
81,680078.469366781,4848918.486557836,1
79,677499.7169462274,4848798.199305267,0
98,681907.8785962306,4850598.371799293,3
99,682801.0357270526,4850643.477460767,2
84,682883.7129735141,4849497.559337872,1
83,681186.9611210464,4849202.0841325335,2
97,680717.6136679349,4849840.441062026,0
84,682640.7613914129,4848692.641758632,1
70,683172.1018380794,4848296.333388978,2
69,682348.8795143827,4848544.266436868,2
81,679236.2200567245,4848910.756090813,3
67,680950.5437398916,4848276.363327828,2
98,681307.8006765064,4849867.003358454,2
94,677934.1010066934,4850548.190696119,2
68,681352.5674495004,4847768.013926621,3
100,684058.0141990383,4849702.686341038,2
83,681608.4307087704,4849408.608933259,3
99,682858.6460822319,4850082.342310223,2
82,680922.8985552622,4849657.005365854,3
67,680538.6989740935,4847928.2127516605,0
68,681220.4335451907,4848157.66472895,2
96,679424.7864880926,4849707.840178281,2
111,679202.8636792176,4850907.068991274,2
54,682547.9832958233,4847015.507042327,2
99,682707.039974369,4850087.403783341,3
111,679161.8669866882,4851100.078293924,3
83,682100.5246669,4849488.900836132,1
97,680518.0864966603,4850332.77488281,2
83,681158.2393218048,4848828.848990502,2
83,681338.8544192219,4849529.292448446,1
68,682140.0521622557,4847727.435665609,0
52,680772.603762864,4846859.319917476,0
114,682763.7694530222,4850803.850849049,2
67,681112.6457197091,4848490.537974309,2
83,681584.8028687736,4849125.898473575,3
66,679398.6325727634,4848008.801183655,2
70,683886.5149761265,4847980.568243878,3
83,681353.2638448767,4849463.926647466,2
83,681718.0225980869,4848797.039254616,2
95,678236.247743252,4850126.097085172,0
96,679414.4734254506,4850215.577990354,2
99,682505.3519919473,4850057.551463168,2
97,681078.8631375082,4849958.852836693,3
109,677777.8568578259,4851565.853733497,2
69,682205.961353545,4848391.419364725,0
81,679832.8522535402,4849606.610048135,1
114,682765.5019388843,4851031.759672202,0
112,680516.7729421636,4851189.979658784,0
67,680955.5864891,4847966.415508365,2
84,682416.9583279567,4849297.705357592,2
111,679302.2870037872,4851302.277202619,2
96,679159.2562483184,4850282.226813817,3
97,680353.778829472,4849906.8475253545,2
83,681889.2856595011,4849411.310255458,2
80,678652.210581149,4849211.970776729,0
94,678146.4745602356,4850018.394763287,1
83,681884.107850635,4849369.682937598,2
81,679744.0589912187,4849621.437542326,3
96,680060.1874406888,4849766.850334917,0
79,677863.310857159,4848858.846053387,2
96,679630.0574885412,4850311.087136237,2
142,680637.1755151225,4853169.625465677,0
53,682044.0932465036,4847540.147920388,1
96,679491.6812107173,4850061.346916607,3
84,683134.590640418,4848760.3037812365,2
96,679621.6924237995,4850365.4149806015,1
96,679623.8887576915,4849728.400855572,3
99,682954.5627879159,4850586.75761643,1
112,680965.7166886152,4851083.139779389,3
96,679820.4893665519,4849903.4372289,1
112,680415.8267632984,4851030.994633676,2
54,682678.1368263824,4846859.374415033,1
114,682847.8306895078,4851581.074645078,1
96,679423.3366911638,4850122.606469849,3
112,680584.8757449506,4850965.943914473,0
67,680783.7617015706,4848208.680993769,0
81,679169.1662942943,4848675.608029652,1
97,680564.9988810943,4849847.657840553,2
82,680656.5107507468,4849652.086420374,2
99,682358.8406784743,4850012.21419319,3
114,682459.664002536,4850973.950080695,1
52,680154.7123625308,4847554.2675092155,2
112,680327.596744278,4850841.1147736395,0
98,681644.9649131527,4849682.470179528,2
81,679770.7437866788,4849427.99365423,3
68,681531.4866876754,4847907.193606317,2
97,680516.6667290154,4850276.190289631,2
51,679194.4285934613,4846775.602466341,1
96,679213.2713907497,4850450.604701065,3
69,682819.1145041159,4847882.004885011,2
97,680413.8942413543,4849736.681382719,0
84,683109.0576009167,4849529.529282785,1
111,679878.0720689968,4851075.977664331,0
82,681085.3342617665,4849458.145684762,1
86,684237.5415445965,4848839.565614204,0
80,679062.4463430743,4849064.608652413,2
109,677801.8047102196,4851199.991210084,2
99,682578.4116570001,4850316.088250596,1
81,679408.3128019796,4849209.775909751,2
82,680617.4669139099,4849388.7961836215,3
66,679769.6491443919,4847791.919378877,2
97,681050.7706315021,4850138.7009286005,2
51,679222.7221492906,4847560.753038344,1
97,680378.6163282443,4850574.687646581,3
98,681323.2494499041,4849826.877798568,1
125,679136.0631306579,4852536.874047068,1
66,679598.4004156004,4848352.369223109,3
81,680127.4522096714,4849549.33737833,2
125,678505.3033087298,4851830.477128686,2
111,680014.6849858711,4851102.199455928,2
82,680826.7212699236,4848837.077425683,2
96,680049.2030476866,4849941.292801627,1
97,680241.4617206716,4849674.931115277,1
97,680618.6739537093,4850010.878928452,1
81,679664.9112664207,4848834.115364397,0
83,681685.1203088695,4849565.3474043375,3
69,682802.4936472719,4847754.869037246,1
96,679951.9558717761,4849834.680029821,2
98,681376.3238072857,4850212.556695685,2
82,680289.1007269173,4849399.628592406,2
68,681196.757477627,4847734.470818877,2
114,682997.1957568742,4850858.770123,2
98,681411.5157745964,4850109.96193317,3
79,677988.4046518547,4848801.313770338,2
83,681329.5199072397,4849335.811351373,2
69,682497.8220750327,4847871.72860424,3
67,680316.1322050721,4848442.039734245,2
83,682141.978669246,4849027.158271951,0
111,679613.3531483413,4851146.636862315,2
80,678420.2177207859,4848905.127818514,0
97,680860.2799883182,4850440.788278773,2
79,678013.8113789498,4849026.552444145,3
97,680288.8699407289,4849970.068960601,2
84,682578.7898540375,4849502.857285006,2
109,677783.8821014498,4850720.19980769,0
80,678729.2812661984,4849030.758281716,3
65,679100.4780923269,4847785.497987576,0
67,680553.5466705028,4848014.193049942,0
81,680099.9512815999,4849034.278894847,1
69,682747.2310326133,4848173.659922766,0
98,682080.0489537067,4850164.786306394,2
83,681391.4358791722,4849113.610089749,2
127,680866.9719315851,4852522.05974761,1
53,681238.3711255465,4847587.274373414,0
96,679355.5529270992,4849916.891702031,0
68,681934.3419904042,4848318.988259372,1
80,678980.4600785305,4849080.450279119,0
98,681901.5919509226,4849842.235255588,2
54,682427.7402132475,4846882.0862377295,1
97,680964.8233632013,4849956.723227724,1
127,680384.2068716263,4851956.020842308,1
83,681248.9913225337,4849128.405929537,2
93,676356.2489049182,4849984.301315745,0
112,681101.9137877974,4850902.437919329,0
82,680478.4954633096,4849475.787687547,3
82,680572.5842904837,4848975.379661341,0
53,681708.325229416,4846941.648203113,2
97,680536.3730777221,4850441.7207508525,2
80,678938.2161750925,4849536.729795904,1
67,680436.4224538312,4848457.311265913,2
97,680749.8596861905,4849824.447939912,2
82,680820.9273274407,4848972.115459411,3
82,680891.4055109968,4849038.42053024,1
99,682207.5800274471,4850400.081274909,1
65,679019.474630518,4848066.47299399,1
112,680912.0771443165,4850929.310230867,2
69,682583.4210079965,4847995.308491836,2
79,678046.6092146634,4848877.290197552,1
127,680917.9964812393,4851980.067320459,1
111,679770.4587071097,4851025.3576015495,3
96,680092.4608833595,4849789.656678573,0
66,679291.3152052476,4848543.895628978,2
82,680394.2003865186,4849037.405119539,2
100,683410.4098817096,4849760.462265082,0
95,678751.8809183034,4849717.559766387,0
80,678894.111456351,4849563.486772028,0
80,678695.624604824,4849635.532870677,3
85,683239.6538900114,4849415.281755933,0
66,679955.0169017873,4847942.157404811,0
82,680610.0678695478,4849052.718996986,0
111,680044.3520484099,4850770.080752363,0
66,679231.8921424646,4848030.530730518,2
82,680295.8004901476,4849445.065273732,1
86,684335.8918686741,4848688.827173054,2
99,682736.6328415306,4849806.152402856,2
81,679369.1197333809,4849206.172070298,3
113,681619.8876146617,4851445.404285548,0
96,679401.2423010697,4850280.431672607,3
64,677983.9750017999,4848098.368088646,2
99,682177.7928365662,4850478.005501515,0
84,682388.6657300346,4848742.949660065,2
84,682217.6048366411,4848980.136241926,3
96,679943.7285862399,4850049.114711707,1
82,680398.3628590662,4849082.434983903,3
113,681773.1747905564,4850743.958867166,2
83,681235.7705160914,4848743.119813763,2
81,680058.0702531236,4848929.796024469,3
80,678219.918729892,4848884.886815321,1
82,680819.3392512823,4848993.765389552,2
114,682267.0409189234,4850991.561754236,1
95,678852.144026518,4850427.087439911,2
128,681606.6655325833,4851724.464632393,2
127,681145.8390027698,4852393.7049322575,1
68,681773.7488549177,4848435.67144926,2
98,681956.4897096477,4849757.034840371,1
66,679606.8285971812,4848261.091507606,0
80,678223.0873598218,4848739.404774281,0
81,679848.2471715449,4848916.432875272,1
68,681982.2174363597,4848403.946038613,0
66,679835.5206047803,4848410.267160101,0
81,679607.4614742828,4849499.390633355,2
64,677916.5009471823,4848212.469785515,2
115,683277.4977918956,4850683.084238544,2
68,681887.0969222072,4848571.227642678,1
143,681803.3704319814,4853044.014651694,3
83,682100.1145402384,4849130.870546422,2
98,681513.5890023843,4849758.95305788,0
67,680282.0331772999,4848118.12246622,0
127,680402.8803038859,4851719.841997332,2
111,680007.179913181,4851015.932704542,0
101,684600.6375916917,4850028.830932462,2
68,681482.3945070184,4848056.368829044,3
96,679952.8257980421,4849925.332140848,0
68,681346.7716213187,4848326.814632358,0
110,679132.2230832848,4851427.358203746,3
99,682905.2865379531,4850643.565565802,2
96,679656.9228163585,4849787.058733764,0
53,681400.154609003,4846748.881091682,3
69,682247.4929046839,4848492.432713188,3
98,681225.6792763767,4850497.845245498,2
112,680790.2314477987,4851127.992317647,2
112,680664.7295873533,4851003.53566137,1
67,680563.8648147386,4847762.116284889,0
96,679783.478726678,4850034.394655754,2
111,679974.3013154147,4850891.150147358,1
69,682867.9120205457,4847682.52920888,2
82,680485.7215110415,4849663.046469131,3
96,679469.8320559951,4850001.142765549,0
81,679874.0800647769,4849311.614385762,2
54,682299.082481115,4847449.937661097,1
83,681661.9364098159,4849281.69415549,3
83,681489.0202274176,4849279.765371272,1
82,680262.2446617045,4849494.845002121,2
83,681508.5701653287,4848996.366177069,2
81,679683.1847726433,4849140.917303689,1
82,680259.1054130506,4849624.884348762,2
98,682103.2331911569,4850203.477413543,2
83,681959.9429784479,4849307.219772151,2
81,679175.6616911431,4849180.953173537,2
96,679365.2367807063,4849783.356733484,3
52,680811.5796892893,4847367.432776504,2
100,683237.7250220735,4850244.97404025,2
79,677775.1787133657,4849671.8561710315,0
97,681066.025869425,4849720.164119496,2
110,678584.4614627095,4850825.413056692,2
51,679697.0299697809,4847329.153251521,2
51,680101.8838329728,4847303.931243748,0
96,680017.7639449139,4850001.096501967,3
81,679847.8325505804,4849663.991661425,1
97,680659.3370506337,4849876.744219409,2
81,679845.6431101233,4849117.979397371,0
95,678454.840382788,4850469.756296666,3
113,681818.3308788534,4850791.698499168,0
98,681777.8347107925,4850253.31064032,1
83,681913.2879251032,4849359.537737493,3
50,678337.4247156731,4847143.3046224415,3
97,681096.9036889455,4850595.615337224,1
113,681662.4947437797,4851138.60628704,2
95,679101.7233574098,4850446.00198196,2
67,680662.2863323424,4848616.960974738,3
97,680474.1264921037,4850481.08515998,1
115,683411.7524479217,4850705.167537132,2
115,683535.2705155881,4851543.111384938,2
65,678151.991870074,4848621.199978505,2
86,684389.4169686612,4849400.786386126,2
96,679275.6878783392,4850569.258348951,2
98,682119.5364015604,4849741.423973304,0
68,682104.2734313648,4848331.738765118,3
96,679154.9911198065,4850170.071429611,3
98,681388.4281508279,4850366.925848157,2
97,680487.2258436701,4849778.087363176,0
98,681480.0214670178,4849936.033800195,1
82,680994.5349136401,4849362.084805556,2
114,682443.0356881246,4851446.466610438,0
67,680761.6257747883,4848591.701267123,3
82,680396.7153559298,4848967.746972262,1
99,682292.622809655,4849685.714503812,2
113,681519.1204073571,4850727.27672082,3
68,681746.2465515506,4847875.6840834655,1
66,679651.6464516814,4848100.1757878605,1
50,679080.6322879716,4847227.257678297,2
96,679796.9432451902,4849711.766157882,2
66,679717.2943815483,4848330.564906931,2
83,681827.8253630486,4849211.071755557,2
98,682112.5025355103,4850466.185715449,3
82,680415.8310257706,4848902.680622639,2
99,682794.9049883058,4849950.070314871,1
84,682701.230550717,4849313.326398277,1
97,681013.62483467,4850479.069065695,1
96,679415.6888027546,4850242.685568396,0
84,683011.5914342225,4848842.211452169,0
82,680557.0004335266,4849470.149783499,2
112,680837.7742547157,4850925.023964844,1
96,680139.1189216594,4850144.584131883,3
66,679313.8409706234,4847996.177418278,1
95,678445.5673145963,4850459.273560984,0
68,681597.8289454052,4848370.999140656,2
111,679473.4248792243,4851367.547571532,3
117,685237.8233035645,4850901.450495388,1
95,679019.4160861506,4850020.39445868,1
95,678762.4527475971,4849861.2112997025,0
83,681413.7345334894,4849421.693180346,2
99,682942.4966785202,4850486.760629259,2
82,680745.4109454841,4849227.598084224,1
98,681506.8900903502,4849955.215732346,0
109,677883.2053338812,4850718.853127402,2
81,679632.2591415315,4848998.364035348,3
80,679038.1028663629,4848933.10059959,2
64,677805.9576851474,4848239.293310709,2
67,680823.996811105,4848395.164592227,0
49,677284.2850276536,4847478.457513849,1
95,678665.2325109381,4850548.326434397,1
126,679842.7357690491,4851843.229338078,2
111,679401.5977061426,4851382.926619743,3
68,681243.1392133798,4847721.230501227,3
97,681106.896747923,4850542.357493446,3
113,681989.2245789724,4851379.059507487,3
83,681777.1020591382,4849124.359910692,3
99,682359.7456441113,4849794.268804359,0
52,680645.6488600556,4847263.060226613,0
97,681103.7268112942,4849992.615289151,1
68,681415.797012948,4848396.2602122575,2
97,680861.0115061557,4849912.093909073,0
66,680052.7349951937,4847799.088380952,3
97,680149.8626585596,4850323.961756952,2
111,679422.1888625743,4850901.947098091,2
83,681280.951704934,4848732.71605352,0
67,680507.5036989416,4848308.224789886,1
51,679653.765834114,4847085.304236519,0
81,679655.1592310823,4849352.835646689,3
80,678832.9283683951,4848974.619166441,2
68,682116.7884719251,4847811.308592761,2
97,680766.4529643669,4850216.154395154,1
81,679354.3264307093,4849132.567429341,1
68,681861.3480844722,4848381.648737204,1
81,679807.8532453777,4849007.04500081,2
110,678538.7755195509,4850958.097334295,2
99,682180.3598938979,4850396.056220085,1
81,679842.88097572,4849516.500613781,3
96,680035.177824756,4850415.457909737,0
67,680710.296490593,4848279.437539915,3
99,682362.4102942544,4849711.376008451,0
97,680678.5823963687,4849849.318684163,1
80,678849.8507708514,4849108.72807738,3
98,681464.3419662375,4850195.081890727,0
81,679921.0418736767,4848736.011742005,2
100,683480.4124173634,4850284.3167369105,2
97,680646.8468770724,4850334.762413416,1
34,677295.9732132212,4846171.940030742,2
113,681184.5739183028,4851100.8987317905,3
40,683565.4231484595,4846015.372809156,3
84,683012.4068928873,4848933.273056911,1
115,683394.9578932041,4850902.949528688,2
80,679118.886181997,4849291.787817276,1
68,682016.7550540344,4847913.108708615,1
66,679565.5346504642,4848360.047413519,0
112,680984.9605591947,4850904.818783163,3
50,678739.0978169596,4847366.72645092,3
111,679681.8428127451,4851027.321208733,2
81,679634.1564140238,4849606.409368728,2
68,681996.3593802832,4848241.657491048,2
83,681849.6051425737,4848972.793800816,2
67,681063.7560540654,4848451.862678257,2
110,678622.8943329862,4850712.002128609,2
97,680181.0673091447,4850551.4452592945,0
51,679529.3517356551,4847609.538526927,0
83,681953.040095111,4849188.221345356,3
69,682415.803739295,4848636.709092766,2
114,682233.1048391155,4851224.74384973,3
66,679515.6973309437,4848052.4129458275,0
108,676539.226776635,4851597.606813201,2
79,677998.0836128742,4849632.578200159,1
69,682780.9669271925,4848278.210599923,1
81,680046.6440510895,4848859.802866768,0
81,679522.4395326716,4848710.589278657,0
69,683112.5169002236,4848142.98980516,3
99,682546.2663783018,4849786.324119255,1
67,680685.1995429489,4848199.033226749,2
52,680208.4218234733,4847056.092437093,2
82,680450.3746408495,4849216.920122561,1
52,680989.2706576504,4847509.104451877,2
84,683048.5973820486,4848769.938845898,0
68,681282.2275964251,4848581.608421255,3
68,681737.570009628,4848627.072601148,2
129,682402.4316236745,4852073.687609487,2
95,678894.0124585326,4849740.225768182,2
98,681780.8192987803,4849966.977098373,0
52,680206.6733280768,4847540.853931968,3
78,676874.3836664101,4848887.776127215,1
94,677456.2721470905,4849930.895043508,0
65,679121.3500427912,4848443.0971920835,1
113,681445.3613029581,4850762.207299801,2
67,680819.2258080797,4848229.295984497,2
82,680925.0765208327,4849328.89252454,2
85,683574.9416840993,4848969.269919608,2
95,678744.8920377796,4849869.716678837,1
82,680607.3764287937,4848903.943801352,3
82,681105.17974429,4849347.459535094,2
81,679544.1167852618,4849389.175777446,2
82,680691.0165776936,4848791.266578709,0
95,678248.6024589427,4850254.644529776,3
99,682763.3857859818,4849958.597937384,1
