Età,Maschi,Femmine,Totale
0,1231,1194,2425
1,1232,1172,2404
2,1230,1221,2451
3,1296,1209,2505
4,1352,1304,2656
5,1463,1336,2799
6,1427,1369,2796
7,1493,1460,2953
8,1516,1344,2860
9,1577,1451,3028
10,1528,1420,2948
11,1572,1463,3035
12,1544,1511,3055
13,1671,1404,3075
14,1630,1496,3126
15,1566,1484,3050
16,1624,1576,3200
17,1699,1487,3186
18,1697,1530,3227
19,1621,1567,3188
20,1677,1629,3306
21,1883,1793,3676
22,1828,1790,3618
23,1891,1853,3744
24,1904,1841,3745
25,1810,1861,3671
26,1799,1847,3646
27,1792,1809,3601
28,1849,1800,3649
29,1920,2018,3938
30,1903,2071,3974
31,2014,2042,4056
32,1957,2183,4140
33,2070,2123,4193
34,2053,2092,4145
35,2010,2104,4114
36,2113,2225,4338
37,2101,2202,4303
38,2205,2396,4601
39,2269,2363,4632
40,2193,2267,4460
41,2243,2296,4539
42,2249,2362,4611
43,2375,2542,4917
44,2447,2554,5001
45,2500,2642,5142
46,2604,2746,5350
47,2757,3091,5848
48,2733,3006,5739
49,2790,3022,5812
50,2797,3141,5938
51,2831,3086,5917
52,2787,3163,5950
53,2833,3077,5910
54,2859,3105,5964
55,2973,3153,6126
56,2920,3103,6023
57,2861,3195,6056
58,2592,2891,5483
59,2517,2822,5339
60,2422,2649,5071
61,2286,2705,4991
62,2252,2616,4868
63,2100,2506,4606
64,2063,2483,4546
65,2017,2421,4438
66,1972,2324,4296
67,1920,2316,4236
68,1821,2131,3952
69,1759,2162,3921
70,1788,2157,3945
71,1758,2205,3963
72,1836,2350,4186
73,1901,2444,4345
74,1941,2468,4409
75,1994,2525,4519
76,1492,2016,3508
77,1518,1981,3499
78,1479,2031,3510
79,1339,1965,3304
80,1348,2018,3366
81,1525,2211,3736
82,1450,2147,3597
83,1407,2128,3535
84,1117,1761,2878
85,909,1616,2525
86,925,1560,2485
87,769,1439,2208
88,673,1293,1966
89,579,1142,1721
90,523,1074,1597
91,440,996,1436
92,369,805,1174
93,242,687,929
94,193,564,757
95,139,429,568
96,84,329,413
97,69,259,328
98,59,198,257
99,29,128,157
100 e più,33,189,222
Totale,172418,194732,367150
