Età,Maschi,Femmine,Totale
0,3624,3415,7039
1,3654,3495,7149
2,3930,3646,7576
3,3959,3589,7548
4,4103,3982,8085
5,4184,3854,8038
6,4207,4088,8295
7,4303,4119,8422
8,4392,4139,8531
9,4655,4414,9069
10,4742,4423,9165
11,4934,4414,9348
12,4989,4832,9821
13,5112,4745,9857
14,5223,5181,10404
15,5263,4920,10183
16,5230,5019,10249
17,5373,5114,10487
18,5406,5141,10547
19,5248,4971,10219
20,5421,4978,10399
21,5542,5174,10716
22,5501,5037,10538
23,5456,5027,10483
24,5416,5047,10463
25,5395,5123,10518
26,5149,5051,10200
27,5347,5001,10348
28,5355,5135,10490
29,5418,5293,10711
30,5429,5461,10890
31,5264,5283,10547
32,5215,5265,10480
33,5290,5447,10737
34,5234,5188,10422
35,5062,5185,10247
36,5296,5297,10593
37,5198,5453,10651
38,5354,5467,10821
39,5690,5830,11520
40,5398,5706,11104
41,5622,5750,11372
42,5596,5891,11487
43,5775,6011,11786
44,5864,6305,12169
45,6128,6501,12629
46,6583,6907,13490
47,6832,7298,14130
48,6533,7291,13824
49,6853,7148,14001
50,6626,7310,13936
51,6446,7188,13634
52,6621,7194,13815
53,6447,7228,13675
54,6611,7375,13986
55,6828,7524,14352
56,6693,7549,14242
57,6843,7703,14546
58,6280,7362,13642
59,6281,7227,13508
60,5986,7152,13138
61,5613,6856,12469
62,5651,6705,12356
63,5376,6477,11853
64,5518,6461,11979
65,5254,6078,11332
66,5205,6201,11406
67,5052,6056,11108
68,4757,5538,10295
69,4644,5537,10181
70,4474,5429,9903
71,4679,5469,10148
72,4579,5434,10013
73,4461,5478,9939
74,4126,5397,9523
75,4227,5458,9685
76,3861,4875,8736
77,2858,3819,6677
78,2837,4124,6961
79,2605,3810,6415
80,2428,3656,6084
81,2440,3779,6219
82,2088,3476,5564
83,1932,3225,5157
84,1701,2926,4627
85,1464,2682,4146
86,1286,2404,3690
87,1107,2177,3284
88,941,2022,2963
89,832,1761,2593
90,635,1434,2069
91,503,1273,1776
92,403,1017,1420
93,303,854,1157
94,197,589,786
95,144,456,600
96,99,320,419
97,81,235,316
98,44,177,221
99,43,123,166
100 e più,60,190,250
Totale,436917,477841,914758
